Data Acquisition and Management Weekly Assignment - Wk10
…
Loughran has a lot more negative sentiments than the other 3 lexicons just by looking at the plot.

I would like to remove all the stop_words and see the most frequenct word I can find in the book. I also want to see the wordcloud generated from the data.

data(stop_words)

gbooksStop <- gbooks %>%
  anti_join(stop_words) %>%
  count(word, sort=TRUE)

gbooksStop 

## # A tibble: 7,766 x 2
##    word         n
##    <chr>    <int>
##  1 country    203
##  2 time       168
##  3 people     141
##  4 master     134
##  5 feet       121
##  6 majesty    111
##  7 found      110
##  8 hundred    109
##  9 court       99
## 10 _yahoos_    97
## #  with 7,756 more rows
…
